covconv (master *) $ for i in {1,2,4,8,10}; do ./run.sh ~/projects/work/covconv/fschimimport.doc_in/ /tmp/doc_out/ $i ~/projects/work/covconv/Aspose.Total.Java.lic ; done
real	1m56.728s
user	2m36.496s
sys	0m3.838s

real	1m5.776s
user	3m0.446s
sys	0m4.367s

real	0m47.892s
user	3m59.351s
sys	0m5.983s

real	0m46.244s
user	5m18.373s
sys	0m8.958s

real	0m48.055s
user	5m32.984s
sys	0m10.477s
covconv (master *)